[{
    "_id": "user01",
    "firstName": "Clarita",
    "lastName": "Abad",
    "email": "Clarita@mail.com",
    "password": "clarita01",
    "isAdmin": false,
    "mobileNumber": "0935241623"
},
{
    "_id": "user02",
    "firstName": "Alejandro",
    "lastName": "Lioba",
    "email": "lioba@mail.com",
    "password": "alejandro123",
    "isAdmin": false,
    "mobileNumber": "09151845123"
}]
